Actividad_03
…
## [1] 243.7031

print(desviacion_preciom)

## [1] 19.55537

# Crear un vector lógico unidimensional para filtrar los outliers que vamos a eliminar
condicion_outliers <- abs((vivienda4$preciom - media_preciom) / desviacion_preciom) <= 3

vivienda4 <- vivienda4 %>%
  filter(condicion_outliers)
print(vivienda4)

## # A tibble: 1,687 × 5
##    zona       estrato preciom areaconst tipo       
##    <fct>      <fct>     <dbl>     <dbl> <fct>      
##  1 Zona Norte 4          232.        52 Apartamento
##  2 Zona Norte 4          272.       160 Casa       
##  3 Zona Norte 4          255.       108 Apartamento
##  4 Zona Sur   4          258.        96 Apartamento
##  5 Zona Norte 4          250.        82 Apartamento
##  6 Zona Norte 4          261.       117 Casa       
##  7 Zona Norte 4          247.        75 Apartamento
##  8 Zona Norte 4          222.        60 Apartamento
##  9 Zona Norte 4          227.        84 Apartamento
## 10 Zona Norte 4          255.       117 Apartamento
## # ℹ 1,677 more rows
…
##     preciom        areaconst    
##  Min.   :207.4   Min.   : 40.0  
##  1st Qu.:230.6   1st Qu.: 60.0  
##  Median :238.6   Median : 75.0  
##  Mean   :243.0   Mean   : 86.4  
##  3rd Qu.:250.8   3rd Qu.: 97.0  
##  Max.   :302.3   Max.   :200.0

print(summary_precio_area)

## # A tibble: 1,687 × 2
##    preciom areaconst
##      <dbl>     <dbl>
##  1    232.        52
##  2    272.       160
##  3    255.       108
##  4    258.        96
##  5    250.        82
##  6    261.       117
##  7    247.        75
##  8    222.        60
##  9    227.        84
## 10    255.       117
## # ℹ 1,677 more rows
…
